Experiment J48
Analysing:  Percent_correct
Confidence: 0.05 (two tailed)

Dataset                   (1) trees.J48 '-C  | (2) trees.J48 ' (3) trees.J48 ' (4) trees.J48 '
----------------------------------------------------------------------------------------------
ProjectDatasetNon-Conflic(100)   88.17(0.30) |   88.18(0.30) v   88.17(0.30)     88.18(0.30)  
----------------------------------------------------------------------------------------------
                                     (v/ /*) |         (1/0/0)         (0/1/0)         (0/1/0)


Key:
(1) trees.J48 '-C 0.25 -M 2' -217733168393644444
(2) trees.J48 '-U -B -A -M 2' -217733168393644444
(3) trees.J48 '-B -A -C 0.25 -M 2' -217733168393644444
(4) trees.J48 '-U -A -M 2' -217733168393644444
